<?xml version="1.0" encoding="utf-8"?>
<!-- Generator: Adobe Illustrator 16.2.0, SVG Export Plug-In . SVG Version: 6.00 Build 0)  -->
<!DOCTYPE svg PUBLIC "-//W3C//DTD SVG 1.1//EN" "http://www.w3.org/Graphics/SVG/1.1/DTD/svg11.dtd">
<svg version="1.1" id="Layer_1" xmlns="http://www.w3.org/2000/svg" xmlns:xlink="http://www.w3.org/1999/xlink" x="0px" y="0px"
	 width="224px" height="126px" viewBox="0 0 224 126" enable-background="new 0 0 224 126" xml:space="preserve">
<g>
	<path fill="#B92423" d="M76.78,63.457c0,20.95-16.983,37.936-37.935,37.936c-20.955,0-37.937-16.985-37.937-37.936
		c0-20.948,16.982-37.935,37.937-37.935C59.796,25.522,76.78,42.509,76.78,63.457z"/>
	<path fill="#DC9C18" d="M222.867,63.457c0,20.95-16.983,37.936-37.935,37.936c-20.955,0-37.938-16.985-37.938-37.936
		c0-20.948,16.983-37.935,37.938-37.935C205.884,25.522,222.867,42.509,222.867,63.457z"/>
	<circle fill="#7A2D67" cx="111.718" cy="63.457" r="59.797"/>
	<g>
		<path fill="#FFFFFF" d="M180.033,76.733V50.863h13.441c0,0,0.084,2.915-2.398,2.915s-7.765,0-7.765,0v8.636h7.976v2.732h-7.976
			v11.587H180.033z"/>
	</g>
	<g>
		<g>
			<path fill="#FFFFFF" d="M37.204,76.733V50.9h3.28v25.833H37.204z"/>
		</g>
	</g>
	<g>
		<g>
			<path fill="#FFFFFF" d="M83.606,39.791c1.162,4.478,11.465,44.226,11.465,44.226h0.152l13.347-47.945h6.521l13.425,47.945h0.152
				c0,0,10.334-39.767,11.568-44.35c1.233-4.583,6.154-3.595,6.154-3.595l-15.113,54.773h-5.524l-13.883-49.02h-0.154l-13.809,49.02
				h-5.675L77.043,36.071C77.043,36.071,82.447,35.313,83.606,39.791z"/>
		</g>
	</g>
	<path fill="#580710" d="M60.612,32.397c-5.514,9.053-8.691,19.685-8.691,31.06c0,11.375,3.177,22.007,8.691,31.061
		c9.773-6.863,16.167-18.212,16.167-31.061C76.78,50.609,70.386,39.26,60.612,32.397z"/>
	<path fill="#681D0F" d="M146.994,63.457c0,12.744,6.291,24.012,15.93,30.891c5.451-9.017,8.591-19.587,8.591-30.891
		s-3.14-21.874-8.59-30.89C153.285,39.446,146.994,50.714,146.994,63.457z"/>
</g>
</svg>
